// Size  8x8
// Score: 121
// Plank Moves: 52
SIZ 10  8
STA  0  3
END  9  1
SOL 0   0 1 0 0 1 1 0 1 1 0
SOL 1   0 1 0 0 0 1 1 0 0 1
SOL 2   0 1 0 0 0 1 0 0 0 0
SOL 3   1 1 0 1 0 1 0 1 0 0
SOL 4   0 1 0 0 1 0 0 1 0 0
SOL 5   0 1 1 0 0 1 1 0 0 0
SOL 6   0 0 0 0 0 0 0 0 0 0
SOL 7   0 0 0 1 1 1 0 0 0 0
PLA 0 3 E 1
PLA 1 3 E 2
PLA 7 0 S 3
PLA 1 1 E 4
// Solution
// 0 1 3N-0 1 2N-3 1 2E-0 1 2S-3 3 3S-0 3 7E-1 3 3E-0 5 3N-3 5 2W-0 5 2N-
// 3 5 1W-0 5 2S-1 5 3E-0 7 3S-1 7 0W-0 5 0W-2 4 0W-0 1 0S-3 4 0S-0 4 0E-
// 2 7 0S-0 7 3S-1 7 3W-2 7 4W-0 4 0E-2 4 4S-0 5 0S-0 5 1S-0 5 2S-1 5 3S-
// 0 5 5E-1 5 5S-0 5 7W-0 4 7W-3 3 7N-0 4 7E-0 5 5E-1 5 5N-0 5 3N-1 5 3W-
// 3 5 2W-1 5 3S-0 5 2N-3 5 1W-0 5 1E-3 6 1S-0 6 5W-1 5 5S-0 5 7W-2 5 5W-
// 
// 0 5 5E-2 6 1E-

// similar to Level_8-8-4-191-79