// Size  9x9
// Score: 294
// Plank Moves: 123
SIZ 11  9
STA  0  4
END 10  2
SOL 0   0 1 0 1 1 1 0 1 0 0 0
SOL 1   0 1 1 0 1 1 0 0 0 1 0
SOL 2   0 1 0 0 0 0 1 0 0 0 1
SOL 3   0 1 1 0 0 1 0 0 0 0 0
SOL 4   1 0 0 1 0 1 0 0 1 1 0
SOL 5   0 0 0 0 1 0 1 1 0 1 0
SOL 6   0 0 1 0 0 0 0 1 1 0 0
SOL 7   0 1 0 0 1 0 1 0 0 1 0
SOL 8   0 1 0 1 0 0 0 1 0 0 0
PLA 1 0 S 1
PLA 7 6 S 2
PLA 0 4 E 3
PLA 3 0 S 4
PLA 7 0 S 5
// Solution
// 3 3 4S-3 3 8E-1 3 8W-3 3 8N-1 3 4E-3 3 4N-1 3 0W-0 3 0E-1 3 4E-0 5 4N-
// 3 3 4S-2 5 3W-1 5 3N-0 5 1W-1 2 3N-2 2 3S-1 2 1E-1 5 1S-0 5 3S-1 5 4W-
// 3 3 4N-1 5 3N-0 5 1N-1 5 0E-0 7 5S-1 7 6S-4 7 6W-0 7 6E-1 8 6N-2 8 4W-
// 0 8 4E-2 9 4N-0 8 6W-1 7 6S-0 7 6N-1 7 5E-0 9 5N-1 9 5S-2 9 7W-1 9 5W-
// 0 7 5S-4 7 5N-1 7 0W-0 5 0S-1 5 1S-0 5 3S-1 5 4W-3 3 4S-1 5 3N-0 5 1N-
// 
// 1 5 0E-0 7 5W-1 6 5S-2 6 5N-4 6 2W-2 6 7E-1 7 5E-0 9 5N-1 9 5S-2 9 4N-
// 0 9 4W-2 8 4W-0 9 4S-1 9 5W-0 7 5S-1 7 6S-0 7 6E-1 8 6N-1 5 4W-1 3 8W-
// 3 3 8E-1 7 8N-0 7 6N-1 7 5E-0 9 5N-0 9 4W-2 9 4N-0 9 4S-1 9 5S-2 9 7W-
// 1 9 5W-0 7 5W-1 6 5S-2 6 5N-4 7 5N-2 6 7E-1 7 5E-0 7 5S-4 7 6W-0 9 5N-
// 1 9 5S-2 9 4N-1 9 5W-0 9 4W-2 8 4W-0 5 4N-2 5 3W-0 2 3W-2 2 3S-0 7 6N-
//  
// 1 7 6S-0 2 3W-3 1 3S-0 7 6N-1 7 5E-0 2 3W-2 2 3E-0 5 3S-2 5 4E-0 8 4E-
// 2 9 4N-0 9 4S-1 9 5S-2 9 7W-1 9 5W-0 7 5S-4 7 5N-0 7 5W-1 6 5S-2 6 5N-
// 4 6 2W-0 1 2S-3 6 2E-
