// Size  8x8
// Score: 250
// Plank Moves: 114
SIZ 10  8
STA  0  6
END  9  3
SOL 0   0 1 1 0 1 0 0 0 1 0
SOL 1   0 0 0 0 1 0 0 1 1 0
SOL 2   0 1 1 1 0 0 0 0 1 0
SOL 3   0 1 1 0 0 0 1 0 0 1
SOL 4   0 0 0 0 1 1 1 0 0 0
SOL 5   0 0 1 1 0 0 0 1 0 0
SOL 6   1 0 1 1 0 0 1 1 0 0
SOL 7   0 1 0 0 1 1 0 0 1 0
PLA 2 6 E 1
PLA 0 6 E 2
PLA 4 1 S 3
PLA 7 1 S 4
PLA 8 2 S 5
// Solution
// 0 2 6N-1 2 5N-0 2 3N-1 2 2N-0 2 0W-1 2 0E-0 4 0S-2 4 1E-3 4 0E-0 7 1E-
// 0 8 1S-4 8 2W-0 8 1N-0 2 0W-1 2 0S-0 2 2S-1 2 3S-0 2 2E-0 8 2N-4 8 2S-
// 0 8 1N-0 4 0S-3 7 1S-0 7 5S-3 7 5W-0 3 5W-3 2 3E-0 2 3W-3 1 3S-0 2 3N-
// 1 2 2N-0 2 0W-1 2 0E-0 4 0S-0 7 1E-0 8 1S-4 8 2W-0 8 1W-0 4 1N-0 2 0W-
// 1 2 0S-0 2 2E-0 8 2N-4 8 2S-0 8 1W-0 4 1N-2 4 1S-0 4 4E-2 4 4S-0 4 7E-
// 
// 2 5 7E-0 8 2N-4 8 2W-0 3 2W-0 2 2S-1 2 3S-0 2 3W-3 2 3E-0 6 3S-1 6 4S-
// 0 2 3N-0 2 2E-0 8 2N-4 8 2S-0 5 7W-2 5 7N-0 5 4E-2 6 6W-0 6 4N-1 2 3S-
// 0 2 5E-3 3 5E-0 2 5S-1 2 6W-0 2 5E-0 7 5S-3 7 5N-0 7 6W-0 3 6W-1 6 6N-
// 0 6 4W-2 5 4S-0 5 4W-2 4 4N-0 4 1N-2 4 1E-3 4 0E-2 4 1S-0 4 4E-2 5 4S-
// 0 5 4E-2 6 6W-0 3 6W-1 2 6W-0 2 6N-1 2 5N-0 2 3N-1 2 2N-0 2 0W-1 2 0E-
// 
// 0 8 0S-0 8 1S-4 8 2W-0 8 1N-0 2 0W-1 2 0S-0 2 2S-1 2 3S-0 2 5S-1 2 6W-
// 0 2 6E-1 6 6N-0 6 4N-2 6 3E-


// // Size  8x8
// // Score: 93
// // Plank Moves: 46
// SIZ 10  8
// STA  0  6
// END  9  5
// SOL 0   0 1 1 0 1 0 0 0 1 0
// SOL 1   0 0 0 0 1 0 0 1 1 0
// SOL 2   0 0 1 1 0 0 0 0 1 0
// SOL 3   0 0 1 0 0 1 0 0 0 0
// SOL 4   0 1 0 0 1 1 1 0 0 0
// SOL 5   0 1 1 1 0 0 0 1 0 1
// SOL 6   1 0 1 0 0 1 1 1 0 0
// SOL 7   0 1 1 0 1 0 1 0 1 0
// PLA 2 6 S 1
// PLA 0 6 E 2
// PLA 3 2 S 3
// PLA 1 0 S 4
// PLA 8 2 S 5
// // Solution:
// // 0 2 6N-1 2 5N-0 2 5E-2 2 3E-0 2 3N-1 2 2N-0 2 0W-1 2 0E-3 4 0E-1 2 0S-
// // 0 2 2S-1 2 3S-0 2 5S-2 2 6E-1 5 6N-0 5 4W-2 4 4S-1 4 7W-2 4 4N-0 4 1N-
// // 2 4 1E-3 7 1S-0 7 5S-3 7 5W-0 3 5W-0 2 5S-0 2 6S-1 2 6W-0 2 6N-1 2 5N-
// // 0 2 3N-1 2 2N-0 2 0W-1 2 0E-0 4 0S-0 7 1E-0 8 1S-4 8 2W-0 8 1W-0 4 1N-
// // 0 2 0W-1 2 0S-0 2 2S-1 2 3S-0 2 5E-1 7 5E-


