// Size  8x8
// Score: 162
// Plank Moves: 72
SIZ 10  8
STA  0  7
END  9  3
SOL 0   0 0 0 0 1 0 0 1 0 0
SOL 1   0 0 1 1 0 0 1 0 1 0
SOL 2   0 1 0 0 1 1 0 0 1 0
SOL 3   0 0 0 0 1 0 0 1 0 1
SOL 4   0 1 0 1 0 0 1 0 0 0
SOL 5   0 0 0 0 0 0 0 0 1 0
SOL 6   0 0 0 1 0 1 1 0 1 0
SOL 7   1 1 0 1 0 0 0 1 1 0
PLA 0 7 E 1
PLA 1 7 E 2
PLA 7 0 S 3
PLA 5 2 S 4
// Solution
// 0 3 7N-1 3 6E-3 3 7E-0 7 7E-3 7 7N-2 7 3W-0 4 3N-2 4 2W-0 4 2E-2 5 2E-
// 0 8 2N-2 8 2S-0 8 5S-0 8 6S-0 8 7W-3 7 7W-0 3 7N-3 5 6N-0 5 6E-1 6 6E-
// 0 8 6N-0 8 2N-2 8 2W-0 5 2W-2 4 2W-0 5 6E-1 5 6W-0 3 6S-3 3 7E-1 3 6N-
// 1 3 4W-1 1 4N-2 1 4S-1 1 4E-2 3 4N-1 3 4S-0 3 1W-2 3 4E-1 6 4S-2 6 4N-
// 1 6 1E-2 6 1W-0 8 1S-2 8 2S-0 8 5S-0 8 6S-0 8 7W-3 7 7N-0 8 7N-0 8 6N-
// 
// 0 8 2N-2 6 1W-0 3 1W-2 6 1S-1 6 4S-2 6 4W-1 3 4S-2 3 4N-0 3 6S-1 3 4W-
// 2 1 4S-1 1 4N-2 1 2E-1 4 2N-2 4 0E-2 7 0S-2 7 3W-3 7 7W-0 7 7E-3 7 7N-
// 0 4 3N-1 7 3E-


// // Size  8x8
// // Score: 90
// // Plank Moves: 40
// SIZ 10  8
// STA  0  7
// END  9  3
// SOL 0   0 0 0 1 1 0 0 1 0 0
// SOL 1   0 0 0 1 0 0 0 0 1 0
// SOL 2   0 1 0 0 1 1 0 0 1 0
// SOL 3   0 0 0 1 0 0 0 1 0 1
// SOL 4   0 1 0 1 0 0 1 0 0 0
// SOL 5   0 0 0 0 1 0 1 0 1 0
// SOL 6   0 0 0 1 0 1 0 0 1 0
// SOL 7   1 1 0 1 0 0 0 1 1 0
// PLA 0 7 E 1
// PLA 1 7 E 2
// PLA 1 2 E 3
// PLA 5 2 S 4
// // Solution:
// // 0 3 7N-1 3 6E-0 5 2W-2 5 6E-0 3 6S-3 3 7E-0 8 6N-1 8 5W-2 8 5N-0 6 5N-
// // 2 6 4W-1 6 5W-2 4 5N-0 4 2E-2 5 2E-0 8 2N-2 8 2S-0 8 5S-0 8 6S-0 8 7W-
// // 3 7 7N-0 8 7N-0 8 6N-0 8 2N-2 8 2W-0 5 2W-2 4 2S-0 6 5N-1 4 2N-2 4 0E-
// // 2 7 0S-3 7 3W-2 7 0W-2 4 2W-1 1 2S-2 1 4S-1 1 4E-2 3 4E-0 3 4N-1 7 3E-
