// Size  10x10
// Score: 405
// Plank Moves: 164
SIZ 12 10
STA  0  8
END 11  5
SOL 0   0 0 1 0 0 1 0 0 0 1 0 0
SOL 1   0 0 0 0 1 0 0 0 0 1 1 0
SOL 2   0 0 0 1 1 0 1 0 0 0 0 0
SOL 3   0 1 0 1 0 1 0 0 1 0 0 0
SOL 4   0 1 1 1 1 0 0 0 0 1 0 0
SOL 5   0 0 0 0 0 1 1 1 0 0 0 1
SOL 6   0 1 0 0 0 1 0 0 0 0 1 0
SOL 7   0 0 0 1 1 0 0 1 0 0 0 0
SOL 8   1 1 1 0 0 0 1 0 1 0 0 0
SOL 9   0 0 0 0 1 0 1 1 0 0 1 0
PLA 0 8 E 1
PLA 4 2 E 2
PLA 2 0 E 3
PLA 2 8 E 4
PLA 8 3 S 5
// Solution
// 0 1 8E-3 2 8N-0 2 4E-3 2 4N-2 3 4S-0 3 4N-0 3 3N-0 3 2E-1 4 2S-0 4 4W-
// 0 3 7E-2 4 7N-1 4 7S-2 4 7E-1 7 7N-0 7 5W-2 6 5N-1 6 2W-0 6 5W-1 5 5N-
// 2 5 3E-0 5 5S-4 5 6E-2 5 3N-2 5 0W-3 5 0E-2 5 0S-0 9 0S-1 5 3W-0 3 3S-
// 2 5 0W-3 2 0S-2 5 0S-2 3 4S-0 3 4W-2 2 0E-3 2 4S-0 3 4N-1 3 3W-0 1 3S-
// 1 1 4S-0 1 4E-3 1 6E-0 5 6N-1 1 6S-0 1 8E-3 2 8E-1 6 8E-0 6 8S-1 6 9W-
// 
// 0 6 9E-1 7 9N-0 6 9N-0 2 8W-3 2 8N-0 2 4E-3 2 4N-2 3 4S-0 3 7E-2 4 7E-
// 2 7 9E-210 9N-410 6N-210 9W-2 7 7W-1 7 7N-0 7 5W-2 6 5N-1 6 2W-0 6 5W-
// 1 5 5N-2 5 3N-2 5 0W-3 5 0E-2 5 0S-0 9 0S-1 5 3W-2 9 1S-0 9 1E-4 9 4W-
// 0 9 1N-2 5 0S-0 3 3S-2 5 0W-3 2 0S-2 5 0S-2 3 4S-0 3 4W-2 2 0E-3 2 4S-
// 0 3 4N-1 3 3W-0 1 3S-1 1 4S-0 1 4E-3 1 6E-0 5 6N-1 1 6S-0 1 8E-3 2 8E-
//  
// 1 6 8E-0 6 8S-1 6 9W-0 6 9E-1 7 9N-0 6 9N-0 2 8W-3 2 8N-0 2 4E-3 2 4N-
// 2 3 4S-0 3 7E-2 4 7E-1 4 7S-2 4 7N-1 4 4N-0 4 2N-4 4 1E-0 4 7W-1 4 7S-
// 2 4 7E-1 7 7S-2 3 7N-0 3 4W-2 2 0E-3 2 4S-0 2 8W-3 2 8E-0 6 8S-0 6 9E-
// 1 6 9W-0 6 9N-1 6 8E-0 2 8W-1 1 8N-3 1 6E-0 5 6N-1 1 6N-0 1 4E-3 2 4N-
// 0 2 4E-2 3 4S-0 2 4W-3 2 4S-0 1 4N-1 1 3E-0 3 3S-1 3 3E-2 5 3E-1 3 3W-
// 
// 0 1 3S-1 1 4S-0 1 4E-3 1 6E-0 5 6N-1 5 5N-0 5 5E-2 6 5S-0 5 5S-1 1 6S-
// 0 1 8E-3 2 8E-0 6 5E-3 7 5E-
